<svg width="58" height="58" viewBox="0 0 58 58" fill="none" xmlns="http://www.w3.org/2000/svg">
<g filter="url(#filter0_d)">
<circle cx="29" cy="27" r="24" fill="#4A96D2"/>
</g>
<path d="M33.9583 14.25H24.0417C21.9752 14.25 19.9933 15.0709 18.5321 16.5321C17.0709 17.9933 16.25 19.9752 16.25 22.0417V31.9583C16.25 34.0248 17.0709 36.0067 18.5321 37.4679C19.9933 38.9291 21.9752 39.75 24.0417 39.75H33.9583C36.0248 39.75 38.0067 38.9291 39.4679 37.4679C40.9291 36.0067 41.75 34.0248 41.75 31.9583V22.0417C41.75 19.9752 40.9291 17.9933 39.4679 16.5321C38.0067 15.0709 36.0248 14.25 33.9583 14.25ZM39.625 31.9583C39.6233 33.4607 39.0257 34.9011 37.9634 35.9634C36.9011 37.0257 35.4607 37.6233 33.9583 37.625H24.0417C22.5393 37.6233 21.0989 37.0257 20.0366 35.9634C18.9743 34.9011 18.3767 33.4607 18.375 31.9583V22.0417C18.3767 20.5393 18.9743 19.0989 20.0366 18.0366C21.0989 16.9743 22.5393 16.3767 24.0417 16.375H33.9583C35.4607 16.3767 36.9011 16.9743 37.9634 18.0366C39.0257 19.0989 39.6233 20.5393 39.625 22.0417V31.9583Z" fill="white"/>
<path d="M29 20.625C27.7391 20.625 26.5066 20.9989 25.4582 21.6994C24.4099 22.3999 23.5928 23.3955 23.1103 24.5604C22.6278 25.7253 22.5015 27.0071 22.7475 28.2437C22.9935 29.4803 23.6006 30.6162 24.4922 31.5078C25.3838 32.3994 26.5197 33.0065 27.7563 33.2525C28.9929 33.4985 30.2747 33.3722 31.4396 32.8897C32.6045 32.4072 33.6001 31.5901 34.3006 30.5418C35.0011 29.4934 35.375 28.2609 35.375 27C35.375 25.3092 34.7034 23.6877 33.5078 22.4922C32.3123 21.2967 30.6908 20.625 29 20.625ZM29 31.25C28.1594 31.25 27.3377 31.0007 26.6388 30.5337C25.9399 30.0667 25.3952 29.403 25.0735 28.6264C24.7518 27.8498 24.6677 26.9953 24.8317 26.1709C24.9957 25.3464 25.4004 24.5892 25.9948 23.9948C26.5892 23.4004 27.3464 22.9956 28.1709 22.8317C28.9953 22.6677 29.8498 22.7518 30.6264 23.0735C31.403 23.3952 32.0668 23.9399 32.5337 24.6388C33.0007 25.3377 33.25 26.1594 33.25 27C33.2487 28.1268 32.8006 29.207 32.0038 30.0038C31.207 30.8005 30.1268 31.2487 29 31.25Z" fill="white"/>
<path d="M35.6584 21.7584C36.4408 21.7584 37.075 21.1241 37.075 20.3417C37.075 19.5593 36.4408 18.925 35.6584 18.925C34.876 18.925 34.2417 19.5593 34.2417 20.3417C34.2417 21.1241 34.876 21.7584 35.6584 21.7584Z" fill="white"/>
<defs>
<filter id="filter0_d" x="0" y="0" width="58" height="58" filterUnits="userSpaceOnUse" color-interpolation-filters="sRGB">
<feFlood flood-opacity="0" result="BackgroundImageFix"/>
<feColorMatrix in="SourceAlpha" type="matrix" values="0 0 0 0 0 0 0 0 0 0 0 0 0 0 0 0 0 0 127 0"/>
<feOffset dy="2"/>
<feGaussianBlur stdDeviation="2.5"/>
<feColorMatrix type="matrix" values="0 0 0 0 0.290196 0 0 0 0 0.588235 0 0 0 0 0.823529 0 0 0 0.35 0"/>
<feBlend mode="normal" in2="BackgroundImageFix" result="effect1_dropShadow"/>
<feBlend mode="normal" in="SourceGraphic" in2="effect1_dropShadow" result="shape"/>
</filter>
</defs>
</svg>
