<svg width="30" height="30" viewBox="0 0 30 30" fill="none" xmlns="http://www.w3.org/2000/svg">
<path d="M27 3L3 27" stroke="#F49600" stroke-width="6" stroke-linecap="round" stroke-linejoin="round"/>
<path d="M3 3L27 27" stroke="#F49600" stroke-width="6" stroke-linecap="round" stroke-linejoin="round"/>
</svg>
